﻿[
  {
    "Key": "Home",
    "LocalizedValue": {
      "vi-VN": "Trang Chủ",
      "en-US": "Home"
    }
  },
  {
    "Key": "Tell us your stories",
    "LocalizedValue": {
      "vi-VN": "Hãy kể câu chuyện của bạn",
      "en-US": "Tell us your stories"
    }
  },
  {
    "Key": "Categories",
    "LocalizedValue": {
      "vi-VN": "Danh Mục",
      "en-US": "Categories"
    }
  },
  {
    "Key": "Language",
    "LocalizedValue": {
      "vi-VN": "Ngôn Ngữ",
      "en-US": "Language"
    }
  },
  {
    "Key": "Vietnamese",
    "LocalizedValue": {
      "vi-VN": "Tiếng Việt",
      "en-US": "Vietnamese"
    }
  },
  {
    "Key": "English",
    "LocalizedValue": {
      "vi-VN": "Tiếng Anh",
      "en-US": "English"
    }
  },
  {
    "Key": "and",
    "LocalizedValue": {
      "vi-VN": "và",
      "en-US": "and"
    }
  },
  {
    "Key": "Posts",
    "LocalizedValue": {
      "vi-VN": "Bài viết",
      "en-US": "Posts"
    }
  },
  {
    "Key": "Log out",
    "LocalizedValue": {
      "vi-VN": "Đăng xuất",
      "en-US": "Log out"
    }
  },
  {
    "Key": "Profile",
    "LocalizedValue": {
      "vi-VN": "Thông tin cá nhân",
      "en-US": "Profile"
    }
  },
  {
    "Key": "New Entry",
    "LocalizedValue": {
      "vi-VN": "Tạo bài viết",
      "en-US": "New Entry"
    }
  },
  {
    "Key": "Register",
    "LocalizedValue": {
      "vi-VN": "Đăng Ký",
      "en-US": "Register"
    }
  },
  {
    "Key": "Login",
    "LocalizedValue": {
      "vi-VN": "Đăng Nhập",
      "en-US": "Login"
    }
  },
  {
    "Key": "Comments",
    "LocalizedValue": {
      "vi-VN": "Bình Luận",
      "en-US": "Comments"
    }
  },
  {
    "Key": "Reply",
    "LocalizedValue": {
      "vi-VN": "Trả Lời",
      "en-US": "Reply"
    }
  },
  {
    "Key": "Post Comment",
    "LocalizedValue": {
      "vi-VN": "Bình Luận",
      "en-US": "Post Comment"
    }
  },
  {
    "Key": "Cancel",
    "LocalizedValue": {
      "vi-VN": "Hủy",
      "en-US": "Cancel"
    }
  },
  {
    "Key": "Edit",
    "LocalizedValue": {
      "vi-VN": "Chỉnh Sửa",
      "en-US": "Edit"
    }
  },
  {
    "Key": "Back to List",
    "LocalizedValue": {
      "vi-VN": "Trở về",
      "en-US": "Back to List"
    }
  },
  {
    "Key": "Create",
    "LocalizedValue": {
      "vi-VN": "Tạo",
      "en-US": "Create"
    }
  },
  {
    "Key": "Update",
    "LocalizedValue": {
      "vi-VN": "Sửa",
      "en-US": "Update"
    }
  }
]